R语言与统计应用25春 - R代码风格
…
    Published

      February 14, 2025

# install.packages("tidyverse")
library(tidyverse)

1 空格

1.1 逗号后空格号

# good
mpg[, 1]

# A tibble: 234 × 1
   manufacturer
   <chr>       
 1 audi        
 2 audi        
 3 audi        
 4 audi        
 5 audi        
 6 audi        
 7 audi        
 8 audi        
 9 audi        
10 audi        
# ℹ 224 more rows

hist(mpg$hwy, breaks = 20, col = "skyblue", 
     main = "Histogram of Highway Mileage", 
     xlab = "Miles per Gallon")

# bad
mpg[ ,1]

# A tibble: 234 × 1
   manufacturer
   <chr>       
 1 audi        
 2 audi        
 3 audi        
 4 audi        
 5 audi        
 6 audi        
 7 audi        
 8 audi        
 9 audi        
10 audi        
# ℹ 224 more rows
…
  [1] 18 21 20 21 16 18 18 18 16 20 19 15 17 17 15 15 17 16 14 11 14 13 12 16 15
 [26] 16 15 15 14 11 11 14 19 22 18 18 17 18 17 16 16 17 17 11 15 15 16 16 15 14
 [51] 13 14 14 14  9 11 11 13 13  9 13 11 13 11 12  9 13 13 12  9 11 11 13 11 11
 [76] 11 12 14 15 14 13 13 13 14 14 13 13 13 11 13 18 18 17 16 15 15 15 15 14 28
[101] 24 25 23 24 26 25 24 21 18 18 21 21 18 18 19 19 19 20 20 17 16 17 17 15 15
[126] 14  9 14 13 11 11 12 12 11 11 11 12 14 13 13 13 21 19 23 23 19 19 18 19 19
[151] 14 15 14 12 18 16 17 18 16 18 18 20 19 20 18 21 19 19 19 20 20 19 20 15 16
[176] 15 15 16 14 21 21 21 21 18 18 19 21 21 21 22 18 18 18 24 24 26 28 26 11 13
[201] 15 16 17 15 15 15 16 21 19 21 22 17 33 21 19 22 21 21 21 16 17 35 29 21 19
[226] 20 20 21 18 19 21 16 18 17

mpg[, 1]

# A tibble: 234 × 1
   manufacturer
   <chr>       
 1 audi        
 2 audi        
 3 audi        
 4 audi        
 5 audi        
 6 audi        
 7 audi        
 8 audi        
 9 audi        
10 audi        
# ℹ 224 more rows
…
  [1] 18 21 20 21 16 18 18 18 16 20 19 15 17 17 15 15 17 16 14 11 14 13 12 16 15
 [26] 16 15 15 14 11 11 14 19 22 18 18 17 18 17 16 16 17 17 11 15 15 16 16 15 14
 [51] 13 14 14 14  9 11 11 13 13  9 13 11 13 11 12  9 13 13 12  9 11 11 13 11 11
 [76] 11 12 14 15 14 13 13 13 14 14 13 13 13 11 13 18 18 17 16 15 15 15 15 14 28
[101] 24 25 23 24 26 25 24 21 18 18 21 21 18 18 19 19 19 20 20 17 16 17 17 15 15
[126] 14  9 14 13 11 11 12 12 11 11 11 12 14 13 13 13 21 19 23 23 19 19 18 19 19
[151] 14 15 14 12 18 16 17 18 16 18 18 20 19 20 18 21 19 19 19 20 20 19 20 15 16
[176] 15 15 16 14 21 21 21 21 18 18 19 21 21 21 22 18 18 18 24 24 26 28 26 11 13
[201] 15 16 17 15 15 15 16 21 19 21 22 17 33 21 19 22 21 21 21 16 17 35 29 21 19
[226] 20 20 21 18 19 21 16 18 17

mpg [ , 1]

# A tibble: 234 × 1
   manufacturer
   <chr>       
 1 audi        
 2 audi        
 3 audi        
 4 audi        
 5 audi        
 6 audi        
 7 audi        
 8 audi        
 9 audi        
10 audi        
# ℹ 224 more rows
…
